<svg width="20" height="21" viewBox="0 0 20 21" fill="none" xmlns="http://www.w3.org/2000/svg">
<path d="M14.6333 17.9439C14.5001 17.9445 14.3686 17.913 14.25 17.8523L10 15.6273L5.75 17.8523C5.61199 17.9248 5.4564 17.9572 5.3009 17.9458C5.1454 17.9343 4.99623 17.8795 4.87036 17.7874C4.74448 17.6954 4.64695 17.5699 4.58884 17.4252C4.53074 17.2805 4.51439 17.1225 4.54167 16.9689L5.375 12.2773L1.94167 8.94394C1.83455 8.83704 1.75856 8.70299 1.72186 8.55618C1.68515 8.40937 1.68912 8.25533 1.73333 8.1106C1.78163 7.9625 1.87048 7.8309 1.98979 7.73073C2.1091 7.63057 2.2541 7.56586 2.40833 7.54394L7.15833 6.85227L9.25 2.57727C9.31824 2.43638 9.42478 2.31755 9.55743 2.23441C9.69007 2.15127 9.84345 2.10718 10 2.10718C10.1565 2.10718 10.3099 2.15127 10.4426 2.23441C10.5752 2.31755 10.6818 2.43638 10.75 2.57727L12.8667 6.84394L17.6167 7.5356C17.7709 7.55752 17.9159 7.62224 18.0352 7.7224C18.1545 7.82256 18.2434 7.95416 18.2917 8.10227C18.3359 8.247 18.3398 8.40103 18.3031 8.54785C18.2664 8.69466 18.1905 8.82871 18.0833 8.9356L14.65 12.2689L15.4833 16.9606C15.5131 17.1168 15.4975 17.2783 15.4384 17.426C15.3794 17.5736 15.2793 17.7013 15.15 17.7939C14.9991 17.8997 14.8174 17.9524 14.6333 17.9439Z" fill="#FFC81A"/>
</svg>
