<svg width="20" height="21" viewBox="0 0 20 21" fill="none" xmlns="http://www.w3.org/2000/svg">
<path d="M7.45 16.0387C8.50571 16.0454 9.55224 15.8423 10.5289 15.4414C11.5055 15.0405 12.3928 14.4496 13.1393 13.7031C13.8858 12.9566 14.4767 12.0693 14.8777 11.0926C15.2786 10.116 15.4816 9.06946 15.475 8.01374C15.475 7.88874 15.475 7.76999 15.475 7.64499C16.0222 7.24405 16.4959 6.75135 16.875 6.18874C16.3597 6.41412 15.8144 6.56359 15.2563 6.63249C15.8481 6.27986 16.2921 5.72479 16.5063 5.06999C15.9547 5.40089 15.3499 5.63352 14.7188 5.75749C14.2937 5.3046 13.7313 5.0044 13.1184 4.90336C12.5056 4.80232 11.8765 4.90606 11.3286 5.19853C10.7806 5.491 10.3444 5.9559 10.0873 6.52129C9.83014 7.08668 9.76652 7.72105 9.90625 8.32624C8.78502 8.27121 7.68794 7.98063 6.68647 7.47343C5.685 6.96624 4.80159 6.25379 4.09375 5.38249C3.73683 6.00198 3.62864 6.73395 3.7911 7.4302C3.95356 8.12644 4.37452 8.73495 4.96875 9.13249C4.53038 9.11559 4.10216 8.99568 3.71875 8.78249V8.81374C3.71485 9.46114 3.93295 10.0903 4.33669 10.5964C4.74043 11.1025 5.30542 11.4549 5.9375 11.595C5.52977 11.7047 5.10268 11.7217 4.6875 11.645C4.87049 12.1971 5.2198 12.6791 5.68753 13.0249C6.15526 13.3706 6.71849 13.5632 7.3 13.5762C6.30576 14.3766 5.07006 14.8171 3.79375 14.8262C3.56997 14.8198 3.34672 14.801 3.125 14.77C4.41685 15.5931 5.91825 16.027 7.45 16.02" fill="#212B36"/>
</svg>
