<svg width="75" height="20" viewBox="0 0 75 20" fill="none" xmlns="http://www.w3.org/2000/svg">
<ellipse cx="69.1667" cy="14.1667" rx="4.16669" ry="4.16666" fill="#FA541C"/>
<path d="M49.4445 18.3334H45.3601L38.5289 8.0532V18.3334H34.4445V1.66669H38.5289L45.3601 11.9943V1.66669H49.4445V18.3334Z" fill="#212B36"/>
<path d="M55.6434 4.9193V8.29062H61.1111V11.4245H55.6434V15.0807H61.6667V18.3334H51.6667V1.66669H61.6667V4.9193H55.6434Z" fill="#212B36"/>
<path d="M23.9121 18.3334C22.3843 18.3334 20.98 17.9779 19.6991 17.2671C18.4337 16.5562 17.4229 15.5672 16.6667 14.3C15.9259 13.0173 15.5556 11.5801 15.5556 9.98843C15.5556 8.39671 15.9259 6.96726 16.6667 5.70007C17.4229 4.43287 18.4337 3.44385 19.6991 2.73298C20.98 2.02212 22.3843 1.66669 23.9121 1.66669C25.4398 1.66669 26.8364 2.02212 28.1019 2.73298C29.3827 3.44385 30.3858 4.43287 31.1111 5.70007C31.8519 6.96726 32.2222 8.39671 32.2222 9.98843C32.2222 11.5801 31.8519 13.0173 31.1111 14.3C30.3704 15.5672 29.3673 16.5562 28.1019 17.2671C26.8364 17.9779 25.4398 18.3334 23.9121 18.3334ZM23.9121 14.7172C25.2084 14.7172 26.2423 14.2845 27.0139 13.4191C27.8009 12.5537 28.1945 11.4102 28.1945 9.98843C28.1945 8.55125 27.8009 7.40768 27.0139 6.55774C26.2423 5.69234 25.2084 5.25964 23.9121 5.25964C22.6003 5.25964 21.5509 5.68461 20.7639 6.53456C19.9923 7.3845 19.6065 8.5358 19.6065 9.98843C19.6065 11.4256 19.9923 12.5769 20.7639 13.4423C21.5509 14.2922 22.6003 14.7172 23.9121 14.7172Z" fill="#212B36"/>
<path d="M6.22986 15.0095H13.3334V18.3334H1.66669V15.2469L8.72314 4.99052H1.66669V1.66669H13.3334V4.75311L6.22986 15.0095Z" fill="#212B36"/>
</svg>
