<svg width="36" height="36" viewBox="0 0 36 36" fill="none" xmlns="http://www.w3.org/2000/svg">
<path d="M26.1249 25.2411L21.4049 20.5211C22.5391 19.1594 23.1047 17.4129 22.984 15.6449C22.8633 13.8769 22.0656 12.2235 20.7569 11.0286C19.4481 9.83369 17.7291 9.18936 15.9575 9.22962C14.1858 9.26988 12.4978 9.99163 11.2447 11.2447C9.99162 12.4978 9.26987 14.1858 9.22961 15.9575C9.18935 17.7292 9.83368 19.4482 11.0286 20.7569C12.2234 22.0656 13.8769 22.8633 15.6449 22.984C17.4129 23.1047 19.1594 22.5391 20.5211 21.4049L25.2411 26.125L26.1249 25.2411ZM10.4999 16.125C10.4999 15.0124 10.8298 13.9249 11.4479 12.9999C12.066 12.0749 12.9445 11.3539 13.9724 10.9281C15.0002 10.5024 16.1312 10.391 17.2223 10.608C18.3135 10.8251 19.3158 11.3608 20.1024 12.1475C20.8891 12.9342 21.4248 13.9364 21.6419 15.0276C21.8589 16.1187 21.7475 17.2497 21.3218 18.2776C20.896 19.3054 20.1751 20.1839 19.25 20.802C18.325 21.4201 17.2375 21.75 16.1249 21.75C14.6336 21.7483 13.2038 21.1551 12.1493 20.1006C11.0948 19.0461 10.5016 17.6163 10.4999 16.125Z" fill="#212B36"/>
</svg>
